{
  "songs": [
    {
      "title": "Bohemian Rhapsody",
      "artist": "Queen",
      "album": "A Night at the Opera",
      "albumart": "queen.png",
      "release": "November 21, 1975",
      "genre": "Rock",
      "url": "http://queenonline.com"
    },
    {
      "title": "Pinball Wizard",
      "artist": "The Who",
      "album": "Tommy",
      "albumart": "who.jpg",
      "release": "September 19, 1968",
      "genre": "Hard rock",
      "url": "http://www.thewho.com"
    },
    {
      "title": "Smoke on the Water",
      "artist": "Deep Purple",
      "album": "Machine Head",
      "albumart": "purple.jpg",
      "release": "March 1972",
      "genre": "Hard rock",
      "url": "http://www.deeppurple.com"
    },
    {
      "title": "Foreplay/Long Time",
      "artist": "Boston",
      "album": "Boston",
      "albumart": "boston.jpg",
      "release": "August 25, 1976",
      "genre": "Rock",
      "url": "http://www.bandboston.com"
    }
  ]
}
